<?xml version="1.0" standalone="no"?>
<!DOCTYPE svg PUBLIC "-//W3C//DTD SVG 1.1//EN" "http://www.w3.org/Graphics/SVG/1.1/DTD/svg11.dtd" >
<svg xmlns="http://www.w3.org/2000/svg" xmlns:xlink="http://www.w3.org/1999/xlink" version="1.1" viewBox="0 0 800 800">
   <path fill="currentColor"
d="M486 612c0 -90 -43 -163 -96 -163s-96 73 -96 163s43 163 96 163s96 -73 96 -163zM208 615c0 -102 88 -230 181 -230s181 132 181 234s-88 181 -181 181s-181 -83 -181 -185zM0 450v-64h800v64h-800z" />
</svg>
