<?xml version="1.0" standalone="no"?>
<!DOCTYPE svg PUBLIC "-//W3C//DTD SVG 1.1//EN" "http://www.w3.org/Graphics/SVG/1.1/DTD/svg11.dtd" >
<svg xmlns="http://www.w3.org/2000/svg" xmlns:xlink="http://www.w3.org/1999/xlink" version="1.1" viewBox="-10 0 822 1000">
   <path fill="currentColor"
d="M352 0v800h103l-3 -800h-100zM2 348h100l300 -297.975l300 297.975h100l-350 -348h-100z" />
</svg>
